// -*- mode: Go;-*-
module gitlab.com/esr/reposurgeon

require (
	github.com/anmitsu/go-shlex v0.0.0-20161002113705-648efa622239
	github.com/cosiner/argv v0.0.1 // indirect
	github.com/emirpasic/gods v1.12.0
	github.com/flynn/go-shlex v0.0.0-20150515145356-3f9db97f8568 // indirect
	github.com/go-delve/delve v1.4.0 // indirect
	github.com/ianbruene/go-difflib v1.1.2
	github.com/kballard/go-shellquote v0.0.0-20180428030007-95032a82bc51
	github.com/konsorten/go-windows-terminal-sequences v1.0.2 // indirect
	github.com/mattn/go-colorable v0.1.6 // indirect
	github.com/mattn/go-runewidth v0.0.8 // indirect
	github.com/orcaman/concurrent-map v0.0.0-20190826125027-8c72a8bb44f6
	github.com/peterh/liner v1.2.0 // indirect
	github.com/sirupsen/logrus v1.4.2 // indirect
	github.com/spf13/cobra v0.0.6 // indirect
	github.com/spf13/pflag v1.0.5 // indirect
	github.com/termie/go-shutil v0.0.0-20140729215957-bcacb06fecae
	gitlab.com/esr/fqme v0.1.0
	gitlab.com/ianbruene/kommandant v0.6.0
	go.starlark.net v0.0.0-20200306205701-8dd3e2ee1dd5 // indirect
	golang.org/x/arch v0.0.0-20200312215426-ff8b605520f4 // indirect
	golang.org/x/crypto v0.0.0-20200406173513-056763e48d71
	golang.org/x/sys v0.0.0-20200409092240-59c9f1ba88fa // indirect
	golang.org/x/text v0.3.2
	gopkg.in/yaml.v2 v2.2.8 // indirect
)

go 1.13
